{
    "gueltigkeitEinmalpasswort": 15,
    "wettbewerbsjahr": "2017",
    "wartung": false,
    "wartungText": "",
    "downloadFreigegebenPrivat": true,
    "datumFreigabePrivat": "",
    "downloadFreigegebenLehrer": true,
    "datumFreigabeLehrer": "",
    "neuanmeldungFreigegeben": false,
    "uploadDisabled": false
}
